{
  "eNowPlayingBrowse":{"eventType":"navigate","eventName":"RadioPresetsFragment","activityName":"NowPlayingActivity","isProcess":"false"},
  "eNowPlayingBrowse1":{"eventType":"navigate","eventName":"AMFMCategoriesFragment","activityName":"NowPlayingActivity","isProcess":"false"},
  "eCategoryBrowseFM":{"eventType":"navigate","eventName":"onAMFM_REQ_FMCATEGORYSTATIONLIST","activityName":"NowPlayingActivity","isProcess":"true"},
  "eCategoryBrowseAM":{"eventType":"navigate","eventName":"onAMFM_REQ_AMCATEGORYSTATIONLIST","activityName":"NowPlayingActivity","isProcess":"true"},
  "eNowPlayingScreen":{"eventType":"navigate","eventName":"NowPlayingFragment","activityName":"NowPlayingActivity","isProcess":"false"},
  "eFMNowPlayingScreen":{"eventType":"navigate","eventName":"NowPlayingFragment","activityName":"NowPlayingActivity","isProcess":"false"},

  "eCategoryBackAM":{"eventType":"navigate","eventName":"onAMFM_REQ_AM_CategoryBack","activityName":"NowPlayingActivity","isProcess":"false"},
  "eCategoryBackFM":{"eventType":"navigate","eventName":"onAMFM_REQ_FM_CategoryBack","activityName":"NowPlayingActivity","isProcess":"false"},

  "eCategoryCloseFM":{"eventType":"navigate","eventName":"onAMFM_REQ_FMSTATIONLIST","activityName":"NowPlayingActivity","isProcess":"true"},
  "eCategoryCloseAM":{"eventType":"navigate","eventName":"onAMFM_REQ_AMSTATIONLIST","activityName":"NowPlayingActivity","isProcess":"true"},

  "eCategoryInfoBackAM":{"eventType":"navigate","eventName":"onAMFM_REQ_AM_Category_Info_Back","activityName":"NowPlayingActivity","isProcess":"false"},
  "eCategoryInfoBackFM":{"eventType":"navigate","eventName":"onAMFM_REQ_FM_Category_Info_Back","activityName":"NowPlayingActivity","isProcess":"false"},

  "eNowPlayingAMInfo":{"eventType":"navigate","eventName":"NowPlayingFragment","activityName":"NowPlayingActivity","isProcess":"false"},
  "eNowPlayingFMInfo":{"eventType":"navigate","eventName":"NowPlayingFragment","activityName":"NowPlayingActivity","isProcess":"false"},

  "eScreenBack":{"eventType":"navigate","eventName":"evG_Back","activityName":"","isProcess":"false"},
  "eScreenClose":{"eventType":"navigate","eventName":"evG_Close","activityName":"","isProcess":"false"},
  "eNowPlayingAMNext":{"eventType":"process","eventName":"onAMFM_REQ_AMSEEKSTATION","activityName":"NowPlayingActivity","isProcess":"true"},
  "eNowPlayingAMPrevious":{"eventType":"process","eventName":"onAMFM_REQ_AMSEEKSTATION","activityName":"NowPlayingActivity","isProcess":"true"},
  "eNowPlayingFMNext":{"eventType":"process","eventName":"onAMFM_REQ_FMSEEKSTATION","activityName":"NowPlayingActivity","isProcess":"true"},
  "eNowPlayingFMPrevious":{"eventType":"process","eventName":"onAMFM_REQ_FMSEEKSTATION","activityName":"NowPlayingActivity","isProcess":"true"},
  "eNowPlayingAM":{"eventType":"navigate","eventName":"onAMFM_REQ_AMSTATIONLIST","activityName":"NowPlayingActivity","isProcess":"true"},
  "eNowPlayingFM":{"eventType":"navigate","eventName":"onAMFM_REQ_FMSTATIONLIST","activityName":"NowPlayingActivity","isProcess":"true"},
  "eManualTunerAmBand":{"eventType":"process","eventName":"onAMFM_REQ_AMSTATIONLIST","activityName":"NowPlayingActivity","isProcess":"true"},
  "eManualTunerFmBand":{"eventType":"process","eventName":"onAMFM_REQ_FMSTATIONLIST","activityName":"NowPlayingActivity","isProcess":"true"},
  "eNowPlayingMedia":{"eventType":"process","eventName":"onMediaRequest","activityName":"NowPlayingActivity","isProcess":"true"},
  "eNowPlayingMore":{"eventType":"process","eventName":"onAuxRequest","activityName":"NowPlayingActivity","isProcess":"true"},
  "eNextScreen":{"eventType":"navigate","eventName":"evG_NowPlaying","activityName":"NowPlayingActivity","isProcess":"false"},
  "eThemesScreen":{"eventType":"navigate","eventName":"evG_Themes","activityName":"ThemesActivity","isProcess":"false"},
  "ePlayPause":{"eventType":"process","eventName":"onNowplayingPlayPause","activityName":"NowPlayingActivity","isProcess":"true"},
  "eAMFMTuneAM":{"eventType":"navigate","eventName":"onAMFM_REQ_AMTUNEBYFREQUENCY","activityName":"NowPlayingActivity","isProcess":"true"},
  "eAMFMTuneFM":{"eventType":"navigate","eventName":"onAMFM_REQ_FMTUNEBYFREQUENCY","activityName":"NowPlayingActivity","isProcess":"true"},
  "eAMFMTuneProcess":{"eventType":"process","eventName":"onAMFM_REQ_AMTUNEBYFREQUENCY","activityName":"NowPlayingActivity","isProcess":"true"},
  "eAMFMTuneScreen":{"eventType":"navigate","eventName":"ManualTunerFragment","activityName":"NowPlayingActivity","isProcess":"false"},
  "eFavorite":{"eventType":"process","eventName":"onFavoriteRequest","activityName":"NowPlayingActivity","isProcess":"true"},
  "eAMFMTuneProcessAM":{"eventType":"process","eventName":"onAMFM_REQ_AMTUNEBYOBJECTID","activityName":"NowPlayingActivity","isProcess":"true"},
  "eAMFMTuneProcessFM":{"eventType":"process","eventName":"onAMFM_REQ_FMTUNEBYOBJECTID","activityName":"NowPlayingActivity","isProcess":"true"},
  "eAMCancelUpdate":{"eventType":"process","eventName":"onAMFM_REQ_CANCELAMSTRONGSTATIONSLISTUPDATE","activityName":"NowPlayingActivity","isProcess":"false"},
  "eAMUpdate":{"eventType":"process","eventName":"onAMFM_REQ_UPDATEAMSTRONGSTATIONSLIST","activityName":"NowPlayingActivity","isProcess":"false"},
  "eFMCancelUpdate":{"eventType":"process","eventName":"onAMFM_REQ_CANCELFMSTRONGSTATIONSLISTUPDATE","activityName":"NowPlayingActivity","isProcess":"false"},
  "eFMUpdate":{"eventType":"process","eventName":"onAMFM_REQ_UPDATEFMSTRONGSTATIONSLIST","activityName":"NowPlayingActivity","isProcess":"false"},
  "eAMFMBtnDisabled":{"eventType":"process","eventName":"onAMFM_REQ_GREYEDBUTTON_CLICK","activityName":"NowPlayingActivity","isProcess":"false"},
  "eAMManualTuneButton":{"eventType":"process","eventName":"onAMFM_REQ_AMTUNEBYPARTIALFREQUENCY","activityName":"NowPlayingActivity","isProcess":"true"},
  "eFMManualTuneButton":{"eventType":"process","eventName":"onAMFM_REQ_FMTUNEBYPARTIALFREQUENCY","activityName":"NowPlayingActivity","isProcess":"true"},
  "eTrafficProgram":{"eventType":"process","eventName":"onAMFM_REQ_TPSTATUS","activityName":"NowPlayingActivity","isProcess":"true"},
  "eAMFMTrafficProgramTurnOff":{"eventType":"process","eventName":"onAMFM_REQ_TPSTATUS","activityName":"NowPlayingActivity","isProcess":"true"},
  "eAMFMTrafficAlertDismiss":{"eventType":"process","eventName":"onAMFM_REQ_TRAFFICALERT_DISMISS","activityName":"NowPlayingActivity","isProcess":"true"},
  "eScreenRecreate":{"eventType":"navigate","eventName":"evG_Recreate","activityName":"","isProcess":"false"},

  "eUsbNowPlayingNext":{"eventType":"process","eventName":"onUsbRequestNowPlayingNext","activityName":"NowPlayingActivity","isProcess":"true"},
  "eUsbNowPlayingPrevious":{"eventType":"process","eventName":"onUsbRequestNowPlayingPrevious","activityName":"NowPlayingActivity","isProcess":"true"},
  "eMediaNowPlayingItemClick":{"eventType":"process","eventName":"onUsbNowPlayingItemClick","activityName":"NowPlayingActivity","isProcess":"true"},
  "eUsbBrowseClose":{"eventType":"navigate","eventName":"onMEDIA_REQ_EXITBROWSE","activityName":"NowPlayingActivity","isProcess":"true"},
  "eUsbBrowseBack":{"eventType":"process","eventName":"onMEDIA_REQ_BACKTRAVERSE","activityName":"NowPlayingActivity","isProcess":"true"},
  "eUsbNowPlayingBrowse":{"eventType":"navigate","eventName":"UsbBrowseFragment","activityName":"NowPlayingActivity","isProcess":"false"},
  "eUsbChildBrowseProcess":{"eventType":"process","eventName":"onUSBBrowseItemClick","activityName":"NowPlayingActivity","isProcess":"true"},
  "eUsbSongsBrowseProcess":{"eventType":"navigate","eventName":"onUSBBrowseSongItemClick","activityName":"NowPlayingActivity","isProcess":"true"},
  "eMediaPlayPauseNextPrevious":{"eventType":"process","eventName":"onMEDIA_REQ_REQUESTPLAYBACKACTION","activityName":"NowPlayingActivity","isProcess":"true"},
  "eUsbNowPlayingShuffle":{"eventType":"process","eventName":"onMEDIA_REQ_SETPLAYBACKMODE","activityName":"NowPlayingActivity","isProcess":"true"},
  "eMediaDialogNo":{"eventType":"process","eventName":"onDialogNoButton","activityName":"NowPlayingActivity","isProcess":"true"},
  "eMediaDialogYes":{"eventType":"process","eventName":"onDialogYesButton","activityName":"NowPlayingActivity","isProcess":"true"},
  "eKeypadLetter":{"eventType":"process","eventName":"onMEDIA_REQ_MEDIAPLAYERLISTFILTER","activityName":"NowPlayingActivity","isProcess":"true"},
  "eUsbKeypadBack":{"eventType":"process","eventName":"onCloseLetterKeypad","activityName":"NowPlayingActivity","isProcess":"true"},
  "eShowKeypadLetter":{"eventType":"process","eventName":"onShowLetterKeypad","activityName":"NowPlayingActivity","isProcess":"true"},
  "onUsbTuneRequest":{"eventType":"process","eventName":"onUsbTuneRequest","activityName":"NowPlayingActivity","isProcess":"true"},
  "onUsbRequestSource":{"eventType":"navigate","eventName":"onUsbRequestSource","activityName":"NowPlayingActivity","isProcess":"true"}
}
